%YAML 1.1
%TAG !u! tag:unity3d.com,2011:
--- !u!78 &1
TagManager:
  serializedVersion: 2
  tags: []
  layers:
  - Default
  - TransparentFX
  - Ignore Raycast
  - 
  - Water
  - UI
  - 
  - 
  - 
  - 
  - 
  - 
  - 
  - 
  - 
  - 
  - 
  - 
  - 
  - 
  - 
  - 
  - 
  - 
  - 
  - 
  - 
  - 
  - 
  - 
  - 
  - 
  m_SortingLayers:
  - name: Default
    uniqueID: 0
    locked: 0
  - name: IsoTiles
    uniqueID: 4110441793
    locked: 0
  - name: furn
    uniqueID: 2080616117
    locked: 0
  - name: job
    uniqueID: 3848260067
    locked: 0
  - name: characters
    uniqueID: 1424534611
    locked: 0
  - name: tileUI
    uniqueID: 1070202199
    locked: 0
